Examples of tidyverse
…
Here, the data was rearranged to show the types of vehicles involved and the reasons for the crash at the beginning of the dataframe instead of towards the end.

An Extension of group_by ( ) and summarize ( )

Another use for summarize would be to show which zip codes had the most injuries. This can be further extended to a plot to visualize the injuries by zip code. Because there are nearly 200 different zip codes, it may be challenging to plot them all together.

zip_injuries <- nyc_traffic_accidents %>%
  group_by(ZIP.CODE) %>%
  summarize(injuries = sum(NUMBER.OF.PERSONS.INJURED, na.rm = TRUE))

zip_injuries
#> # A tibble: 199 × 2
#>    ZIP.CODE injuries
#>       <dbl>    <dbl>
#>  1    10000        7
#>  2    10001       75
#>  3    10002      148
#>  4    10003       76
#>  5    10004       10
#>  6    10005        4
#>  7    10006        3
#>  8    10007       11
#>  9    10009       53
#> 10    10010       53
#> # … with 189 more rows
…
